<svg id="facebook-logo" xmlns="http://www.w3.org/2000/svg" width="11.546" height="21.355" viewBox="0 0 11.546 21.355">
  <path id="Trazado_9" data-name="Trazado 9" d="M33.188,0,30.418,0C27.307,0,25.3,2.063,25.3,5.255V7.679H22.512a.435.435,0,0,0-.435.436v3.511a.435.435,0,0,0,.435.435H25.3v8.859a.435.435,0,0,0,.435.435h3.633a.435.435,0,0,0,.435-.435V12.06h3.256a.435.435,0,0,0,.435-.435V8.114a.436.436,0,0,0-.436-.436H29.8V5.624c0-.987.235-1.488,1.521-1.488h1.865a.435.435,0,0,0,.435-.435V.44A.436.436,0,0,0,33.188,0Z" transform="translate(-22.077)" fill="#f88d31"/>
</svg>
